{
    "user": "zxvcv-conan+fifo",
    "channel": "testing",
    "remote": "gitlab",

    "builds": [
        {
            "name": "build1",
            "image": "zxvcv/gcc:latest",
            "profiles": ["profiles/linux-test.cfg"],
            "settings": [],
            "options": []
        },
        {
            "name": "build2",
            "image": "zxvcv/gcc-arm-none-eabi:latest",
            "profiles": ["profiles/linux-cortex_m4.cfg"],
            "settings": [],
            "options": []
        },
        {
            "name": "build3",
            "image": null,
            "profiles": ["profiles/linux-avr.cfg"],
            "settings": [],
            "options": []
        }
    ]
}